%YAML 1.1
%TAG !u! tag:unity3d.com,2011:
--- !u!1 &5071678908641391130
GameObject:
  m_ObjectHideFlags: 0
  m_CorrespondingSourceObject: {fileID: 0}
  m_PrefabInstance: {fileID: 0}
  m_PrefabAsset: {fileID: 0}
  serializedVersion: 6
  m_Component:
  - component: {fileID: 5560232175054973088}
  - component: {fileID: 3086112275449466520}
  - component: {fileID: 3307339859595784427}
  m_Layer: 9
  m_Name: NPCView
  m_TagString: Untagged
  m_Icon: {fileID: 0}
  m_NavMeshLayer: 0
  m_StaticEditorFlags: 0
  m_IsActive: 1
--- !u!4 &5560232175054973088
Transform:
  m_ObjectHideFlags: 0
  m_CorrespondingSourceObject: {fileID: 0}
  m_PrefabInstance: {fileID: 0}
  m_PrefabAsset: {fileID: 0}
  m_GameObject: {fileID: 5071678908641391130}
  m_LocalRotation: {x: 0, y: 1, z: 0, w: 0}
  m_LocalPosition: {x: 0, y: 0, z: 0}
  m_LocalScale: {x: 1, y: 1, z: 1}
  m_Children: []
  m_Father: {fileID: 0}
  m_RootOrder: 0
  m_LocalEulerAnglesHint: {x: 0, y: 180, z: 0}
--- !u!114 &3086112275449466520
MonoBehaviour:
  m_ObjectHideFlags: 0
  m_CorrespondingSourceObject: {fileID: 0}
  m_PrefabInstance: {fileID: 0}
  m_PrefabAsset: {fileID: 0}
  m_GameObject: {fileID: 5071678908641391130}
  m_Enabled: 1
  m_EditorHideFlags: 0
  m_Script: {fileID: 11500000, guid: ad7ef1b53113ada47ab610265564c43a, type: 3}
  m_Name: 
  m_EditorClassIdentifier: 
  bulletViewPrefab: {fileID: 0}
  sphereCollider: {fileID: 0}
  modelPrefabs:
  - {fileID: 8515567272707601501, guid: 80efd3a5036391a4e9c00e90a5cdf85b, type: 3}
  - {fileID: 4289701904133828568, guid: bca94ea0626c36f4da922bfd215d7652, type: 3}
  - {fileID: 2310153977085907050, guid: d28d90c35fc7c4244a38749ae1d00885, type: 3}
--- !u!135 &3307339859595784427
SphereCollider:
  m_ObjectHideFlags: 0
  m_CorrespondingSourceObject: {fileID: 0}
  m_PrefabInstance: {fileID: 0}
  m_PrefabAsset: {fileID: 0}
  m_GameObject: {fileID: 5071678908641391130}
  m_Material: {fileID: 0}
  m_IsTrigger: 0
  m_Enabled: 1
  serializedVersion: 2
  m_Radius: 1
  m_Center: {x: 0, y: 0, z: 0}
